ltapi - A package for accessing the LimnoTrack API • ltapi
…
Fetch data

Use lt_fetch() with lt_filter() to query a specific lake:

wq <- lt_fetch(
  table  = "water_profile",
  filter = lt_filter(site_id == "Rotorua"),
  order  = "datetime.asc",
  limit = 1000
)

wq
#> # A tibble: 1,000 × 6
#>    site_id datetime            parameter   value qc_level qc_comment
#>    <chr>   <dttm>              <chr>       <dbl>    <int> <chr>     
#>  1 Rotorua 2026-03-09 21:04:16 Cond      206.         400 ""        
#>  2 Rotorua 2026-03-09 21:04:16 DOconc     NA          100 ""        
#>  3 Rotorua 2026-03-09 21:04:16 DOconc      8.39       400 ""        
#>  4 Rotorua 2026-03-09 21:04:16 DOpsat     92.5        400 ""        
#>  5 Rotorua 2026-03-09 21:04:16 DptSns      1          400 ""        
#>  6 Rotorua 2026-03-09 21:04:16 FlChlr      4.88       400 ""        
#>  7 Rotorua 2026-03-09 21:04:16 FlPhyc      3.45       400 ""        
#>  8 Rotorua 2026-03-09 21:04:16 ORP       379.         400 ""        
#>  9 Rotorua 2026-03-09 21:04:16 PCchla      0.706      400 ""        
#> 10 Rotorua 2026-03-09 21:04:16 pH          7.27       400 ""        
#> # ℹ 990 more rows
…
# Set membership
lt_fetch("lake_metadata", filter = lt_filter(
  id %in% c("LID40188", "LID40189")
))
#> # A tibble: 2 × 7
#>   name    id       latitude longitude elevation depth    area
#>   <chr>   <chr>       <dbl>     <dbl>     <dbl> <dbl>   <int>
#> 1 Rotoehu LID40188    -38.0      177.      303.  22.7 7965248
#> 2 Rotoehu LID40188    -38.0      177.      303.  22.7 7965248

# Null checks
lt_fetch("water_profile", filter = lt_filter(
  !is.na(value)
))
#> # A tibble: 1,000 × 6
#>    site_id  datetime            parameter    value qc_level qc_comment
#>    <chr>    <dttm>              <chr>        <dbl>    <int> <chr>     
#>  1 Karapiro 2026-03-10 16:35:47 FlChlr       7.49       400 ""        
#>  2 Karapiro 2026-03-10 16:35:47 FlChlr_AVG   7.49       400 ""        
#>  3 Karapiro 2026-03-10 16:35:47 FlChlr_MED   6.79       400 ""        
#>  4 Karapiro 2026-03-10 16:35:47 FlChlr_STDEV 1.43       400 ""        
#>  5 Karapiro 2026-03-10 16:35:47 FlPhyc       2.72       400 ""        
#>  6 Karapiro 2026-03-10 16:35:47 FlPhyc_AVG   2.72       400 ""        
#>  7 Karapiro 2026-03-10 16:35:47 FlPhyc_MED   2.66       400 ""        
#>  8 Karapiro 2026-03-10 16:35:47 FlPhyc_STDEV 0.158      400 ""        
#>  9 Karapiro 2026-03-10 16:35:47 fDOM_AVG     9.63       400 ""        
#> 10 Karapiro 2026-03-10 16:35:47 fDOM_MED     9.64       400 ""        
#> # ℹ 990 more rows
…
